nev info
PCPEB_False_0.5_output: total: 326742
PCPEB_False_0.5_output: selected: 326737
CCPEB_False_0.5_output: total: 50166
CCPEB_False_0.5_output: selected: 50144
PCPEB_True_5_output: total: 326742
PCPEB_True_5_output: selected: 27586
CCPEB_True_5_output: total: 50166
CCPEB_True_5_output: selected: 37331
PCPEB_True_10_output: total: 326742
PCPEB_True_10_output: selected: 1934
CCPEB_True_10_output: total: 50166
CCPEB_True_10_output: selected: 11908
PCPEB_True_15_output: total: 326742
PCPEB_True_15_output: selected: 414
CCPEB_True_15_output: total: 50166
CCPEB_True_15_output: selected: 7071
PCPEB_True_20_output: total: 326742
PCPEB_True_20_output: selected: 151
CCPEB_True_20_output: total: 50166
CCPEB_True_20_output: selected: 5260
PCPEB_True_25_output: total: 326742
PCPEB_True_25_output: selected: 66
CCPEB_True_25_output: total: 50166
CCPEB_True_25_output: selected: 4276
