Receive log
#<Lreplica:0x00000000030a0458>
#<Lreplica:0x0000000002ff7060>
#<Lreplica:0x00000000030cb428>
Delegated Proxy Updated
FTSID=bc7e8948-efe3-11eb-8806-b49691292f84
xiaoning-/DC=ch/DC=cern/OU=Organic Units/OU=Users/CN=xiaoning/CN=840238/CN=Xiaoning Wang-unknown-61733415f0d448d78276f6b9a62193f0
#<Lreplica:0x0000000002aac718>
Delegated Proxy Updated
FTSID=bf65586c-efe3-11eb-a300-b49691292f28
#<Lreplica:0x00000000024b4450>
#<Lreplica:0x0000000002488c38>
#<Lreplica:0x000000000246e9a0>
Delegated Proxy Updated
FTSID=c25c3662-efe3-11eb-b1e8-b49691292ed8
#<Lreplica:0x000000000087b720>
#<Lreplica:0x0000000001bb73c0>
#<Lreplica:0x0000000001b5f0f8>
Delegated Proxy Updated
FTSID=c6943856-efe3-11eb-8d49-b49691292f84
xiaoning-/DC=ch/DC=cern/OU=Organic Units/OU=Users/CN=xiaoning/CN=840238/CN=Xiaoning Wang-unknown-61733415f0d448d78276f6b9a62193f0
#<Lreplica:0x00000000030d7200>
Delegated Proxy Updated
FTSID=c975771a-efe3-11eb-bcae-b49691292f28
#<Lreplica:0x0000000001fc59f8>
#<Lreplica:0x0000000001a0e2d0>
#<Lreplica:0x000000000192c5b0>
Delegated Proxy Updated
FTSID=cc502660-efe3-11eb-8fba-b49691292ed8
#<Lreplica:0x0000000001802978>
#<Lreplica:0x0000000002730738>
#<Lreplica:0x00000000017bea98>
Delegated Proxy Updated
FTSID=cf1eb6ea-efe3-11eb-a5af-b49691292f84
#<Lreplica:0x000000000225ad80>
#<Lreplica:0x00000000025e5fe0>
#<Lreplica:0x000000000266fcb8>
Delegated Proxy Updated
FTSID=d2a95036-efe3-11eb-925b-b49691292f28
#<Lreplica:0x00000000023bc070>
#<Lreplica:0x000000000238eda0>
#<Lreplica:0x000000000235d228>
Delegated Proxy Updated
FTSID=d625adf4-efe3-11eb-b0ca-b49691292ed8
xiaoning-/DC=ch/DC=cern/OU=Organic Units/OU=Users/CN=xiaoning/CN=840238/CN=Xiaoning Wang-unknown-61733415f0d448d78276f6b9a62193f0
#<Lreplica:0x0000000002a8cbe8>
#<Lreplica:0x00000000026c34f8>
Delegated Proxy Updated
FTSID=d90bac08-efe3-11eb-9b4b-b49691292f84
xiaoning-/DC=ch/DC=cern/OU=Organic Units/OU=Users/CN=xiaoning/CN=840238/CN=Xiaoning Wang-unknown-61733415f0d448d78276f6b9a62193f0
#<Lreplica:0x00000000030f7168>
#<Lreplica:0x0000000002d1b3f0>
Delegated Proxy Updated
FTSID=dbc756b8-efe3-11eb-b6c3-b49691292f28
#<Lreplica:0x00000000014705f8>
#<Lreplica:0x00000000010301a0>
#<Lreplica:0x000000000084b0c0>
Delegated Proxy Updated
FTSID=dec67114-efe3-11eb-878f-b49691292ed8
xiaoning-/DC=ch/DC=cern/OU=Organic Units/OU=Users/CN=xiaoning/CN=840238/CN=Xiaoning Wang-unknown-61733415f0d448d78276f6b9a62193f0
#<Lreplica:0x000000000280a230>
#<Lreplica:0x0000000002824798>
Delegated Proxy Updated
FTSID=e200ee36-efe3-11eb-8fc4-b49691292f84
#<Lreplica:0x00000000023b0ec8>
#<Lreplica:0x00000000023d1560>
#<Lreplica:0x00000000023e2f40>
Delegated Proxy Updated
FTSID=e4d4065c-efe3-11eb-b6c3-b49691292f28
xiaoning-/DC=ch/DC=cern/OU=Organic Units/OU=Users/CN=xiaoning/CN=840238/CN=Xiaoning Wang-unknown-61733415f0d448d78276f6b9a62193f0
#<Lreplica:0x000000000287a5d0>
Delegated Proxy Updated
FTSID=e7a1590c-efe3-11eb-8ab9-b49691292ed8
#<Lreplica:0x00000000037c79c0>
#<Lreplica:0x00000000037b13f0>
#<Lreplica:0x0000000003733978>
Delegated Proxy Updated
FTSID=ea88d4e2-efe3-11eb-a5af-b49691292f84
xiaoning-/DC=ch/DC=cern/OU=Organic Units/OU=Users/CN=xiaoning/CN=840238/CN=Xiaoning Wang-unknown-61733415f0d448d78276f6b9a62193f0
#<Lreplica:0x0000000001ada920>
#<Lreplica:0x000000000270b0a0>
Delegated Proxy Updated
FTSID=ed80f710-efe3-11eb-925b-b49691292f28
#<Lreplica:0x0000000001886908>
#<Lreplica:0x0000000001843720>
#<Lreplica:0x00000000014f2e90>
Delegated Proxy Updated
FTSID=f0bb7a68-efe3-11eb-b0ca-b49691292ed8
xiaoning-/DC=ch/DC=cern/OU=Organic Units/OU=Users/CN=xiaoning/CN=840238/CN=Xiaoning Wang-unknown-61733415f0d448d78276f6b9a62193f0
#<Lreplica:0x0000000001db8958>
Delegated Proxy Updated
FTSID=f3e29eba-efe3-11eb-825c-b49691292f84
#<Lreplica:0x00000000028b75c0>
#<Lreplica:0x000000000257f628>
#<Lreplica:0x00000000020a2b78>
Delegated Proxy Updated
FTSID=f6cfdc96-efe3-11eb-9bdf-b49691292f28
#<Lreplica:0x0000000002ac2298>
#<Lreplica:0x000000000338fc90>
#<Lreplica:0x0000000003394510>
Delegated Proxy Updated
FTSID=f9c89ee2-efe3-11eb-849c-b49691292ed8
