data18_hi.00365502.calibration_PCPEB.merge.AOD.k1023_m2037
data18_hi.00365512.calibration_PCPEB.merge.AOD.k1023_m2037
data18_hi.00365573.calibration_PCPEB.merge.AOD.k1029_m2048
data18_hi.00365602.calibration_PCPEB.merge.AOD.k1029_m2048
data18_hi.00365627.calibration_PCPEB.merge.AOD.k1029_m2048
data18_hi.00365678.calibration_PCPEB.merge.AOD.k1029_m2048
data18_hi.00365681.calibration_PCPEB.merge.AOD.k1029_m2048
data18_hi.00365709.calibration_PCPEB.merge.AOD.k1029_m2048
data18_hi.00365752.calibration_PCPEB.merge.AOD.k1029_m2048
data18_hi.00365834.calibration_PCPEB.merge.AOD.k1029_m2048
data18_hi.00365914.calibration_PCPEB.merge.AOD.k1029_m2048
data18_hi.00365932.calibration_PCPEB.merge.AOD.k1029_m2048
data18_hi.00366011.calibration_PCPEB.merge.AOD.k1029_m2048
data18_hi.00366029.calibration_PCPEB.merge.AOD.k1029_m2048
data18_hi.00366092.calibration_PCPEB.merge.AOD.k1029_m2048
data18_hi.00366142.calibration_PCPEB.merge.AOD.k1029_m2048
data18_hi.00366268.calibration_PCPEB.merge.AOD.k1029_m2048
data18_hi.00366337.calibration_PCPEB.merge.AOD.k1029_m2048
data18_hi.00366383.calibration_PCPEB.merge.AOD.k1029_m2048
data18_hi.00366413.calibration_PCPEB.merge.AOD.k1029_m2048
data18_hi.00366476.calibration_PCPEB.merge.AOD.k1029_m2048
data18_hi.00366526.calibration_PCPEB.merge.AOD.k1029_m2048
data18_hi.00366528.calibration_PCPEB.merge.AOD.k1029_m2048
data18_hi.00366627.calibration_PCPEB.merge.AOD.k1029_m2048
data18_hi.00366691.calibration_PCPEB.merge.AOD.k1029_m2048
data18_hi.00366754.calibration_PCPEB.merge.AOD.k1029_m2048
data18_hi.00366805.calibration_PCPEB.merge.AOD.k1029_m2048
data18_hi.00366860.calibration_PCPEB.merge.AOD.k1029_m2048
data18_hi.00366878.calibration_PCPEB.merge.AOD.k1029_m2048
data18_hi.00366919.calibration_PCPEB.merge.AOD.k1029_m2048
data18_hi.00366931.calibration_PCPEB.merge.AOD.k1029_m2048
data18_hi.00366994.calibration_PCPEB.merge.AOD.k1029_m2048
data18_hi.00367023.calibration_PCPEB.merge.AOD.k1029_m2048
data18_hi.00367099.calibration_PCPEB.merge.AOD.k1029_m2048
data18_hi.00367134.calibration_PCPEB.merge.AOD.k1029_m2048
data18_hi.00367165.calibration_PCPEB.merge.AOD.k1029_m2048
data18_hi.00367170.calibration_PCPEB.merge.AOD.k1029_m2048
data18_hi.00367233.calibration_PCPEB.merge.AOD.k1029_m2048
data18_hi.00367273.calibration_PCPEB.merge.AOD.k1029_m2048
data18_hi.00367318.calibration_PCPEB.merge.AOD.k1029_m2048
data18_hi.00367321.calibration_PCPEB.merge.AOD.k1029_m2048
data18_hi.00367363.calibration_PCPEB.merge.AOD.k1029_m2048
data18_hi.00367364.calibration_PCPEB.merge.AOD.k1029_m2048
data18_hi.00367365.calibration_PCPEB.merge.AOD.k1029_m2048
data18_hi.00367384.calibration_PCPEB.merge.AOD.k1029_m2048
data18_hi.00365502.calibration_CCPEB.merge.AOD.k1023_m2037
data18_hi.00365512.calibration_CCPEB.merge.AOD.k1023_m2037
data18_hi.00365573.calibration_CCPEB.merge.AOD.k1029_m2048
data18_hi.00365602.calibration_CCPEB.merge.AOD.k1029_m2048
data18_hi.00365627.calibration_CCPEB.merge.AOD.k1029_m2048
data18_hi.00365678.calibration_CCPEB.merge.AOD.k1029_m2048
data18_hi.00365681.calibration_CCPEB.merge.AOD.k1029_m2048
data18_hi.00365709.calibration_CCPEB.merge.AOD.k1029_m2048
data18_hi.00365752.calibration_CCPEB.merge.AOD.k1029_m2048
data18_hi.00365834.calibration_CCPEB.merge.AOD.k1029_m2048
data18_hi.00365914.calibration_CCPEB.merge.AOD.k1029_m2048
data18_hi.00365932.calibration_CCPEB.merge.AOD.k1029_m2048
data18_hi.00366011.calibration_CCPEB.merge.AOD.k1029_m2048
data18_hi.00366029.calibration_CCPEB.merge.AOD.k1029_m2048
data18_hi.00366092.calibration_CCPEB.merge.AOD.k1029_m2048
data18_hi.00366142.calibration_CCPEB.merge.AOD.k1029_m2048
data18_hi.00366268.calibration_CCPEB.merge.AOD.k1029_m2048
data18_hi.00366337.calibration_CCPEB.merge.AOD.k1029_m2048
data18_hi.00366383.calibration_CCPEB.merge.AOD.k1029_m2048
data18_hi.00366413.calibration_CCPEB.merge.AOD.k1029_m2048
data18_hi.00366476.calibration_CCPEB.merge.AOD.k1029_m2048
data18_hi.00366526.calibration_CCPEB.merge.AOD.k1029_m2048
data18_hi.00366528.calibration_CCPEB.merge.AOD.k1029_m2048
data18_hi.00366627.calibration_CCPEB.merge.AOD.k1029_m2048
data18_hi.00366691.calibration_CCPEB.merge.AOD.k1029_m2048
data18_hi.00366754.calibration_CCPEB.merge.AOD.k1029_m2048
data18_hi.00366805.calibration_CCPEB.merge.AOD.k1029_m2048
data18_hi.00366860.calibration_CCPEB.merge.AOD.k1029_m2048
data18_hi.00366878.calibration_CCPEB.merge.AOD.k1029_m2048
data18_hi.00366919.calibration_CCPEB.merge.AOD.k1029_m2048
data18_hi.00366931.calibration_CCPEB.merge.AOD.k1029_m2048
data18_hi.00366994.calibration_CCPEB.merge.AOD.k1029_m2048
data18_hi.00367023.calibration_CCPEB.merge.AOD.k1029_m2048
data18_hi.00367099.calibration_CCPEB.merge.AOD.k1029_m2048
data18_hi.00367134.calibration_CCPEB.merge.AOD.k1029_m2048
data18_hi.00367165.calibration_CCPEB.merge.AOD.k1029_m2048
data18_hi.00367170.calibration_CCPEB.merge.AOD.k1029_m2048
data18_hi.00367233.calibration_CCPEB.merge.AOD.k1029_m2048
data18_hi.00367273.calibration_CCPEB.merge.AOD.k1029_m2048
data18_hi.00367318.calibration_CCPEB.merge.AOD.k1029_m2048
data18_hi.00367321.calibration_CCPEB.merge.AOD.k1029_m2048
data18_hi.00367363.calibration_CCPEB.merge.AOD.k1029_m2048
data18_hi.00367364.calibration_CCPEB.merge.AOD.k1029_m2048
data18_hi.00367365.calibration_CCPEB.merge.AOD.k1029_m2048
data18_hi.00367384.calibration_CCPEB.merge.AOD.k1029_m2048