data18_hi.00365573.calibration_CCPEB.merge.AOD.k1029_m2048
data18_hi.00365602.calibration_CCPEB.merge.AOD.k1029_m2048
data18_hi.00365627.calibration_CCPEB.merge.AOD.k1029_m2048
data18_hi.00365678.calibration_CCPEB.merge.AOD.k1029_m2048
data18_hi.00365681.calibration_CCPEB.merge.AOD.k1029_m2048
data18_hi.00365709.calibration_CCPEB.merge.AOD.k1029_m2048
data18_hi.00365752.calibration_CCPEB.merge.AOD.k1029_m2048
data18_hi.00365834.calibration_CCPEB.merge.AOD.k1029_m2048
data18_hi.00365914.calibration_CCPEB.merge.AOD.k1029_m2048
data18_hi.00365932.calibration_CCPEB.merge.AOD.k1029_m2048
data18_hi.00366011.calibration_CCPEB.merge.AOD.k1029_m2048
data18_hi.00366029.calibration_CCPEB.merge.AOD.k1029_m2048
data18_hi.00366092.calibration_CCPEB.merge.AOD.k1029_m2048
data18_hi.00366142.calibration_CCPEB.merge.AOD.k1029_m2048
data18_hi.00366268.calibration_CCPEB.merge.AOD.k1029_m2048
data18_hi.00366337.calibration_CCPEB.merge.AOD.k1029_m2048
data18_hi.00366383.calibration_CCPEB.merge.AOD.k1029_m2048
data18_hi.00366413.calibration_CCPEB.merge.AOD.k1029_m2048
data18_hi.00366476.calibration_CCPEB.merge.AOD.k1029_m2048


