data18_hi.00366931.calibration_PCPEB.merge.AOD.k1029_m2048
data18_hi.00366994.calibration_PCPEB.merge.AOD.k1029_m2048
data18_hi.00367023.calibration_PCPEB.merge.AOD.k1029_m2048
data18_hi.00367099.calibration_PCPEB.merge.AOD.k1029_m2048
data18_hi.00367134.calibration_PCPEB.merge.AOD.k1029_m2048
data18_hi.00367165.calibration_PCPEB.merge.AOD.k1029_m2048
data18_hi.00367170.calibration_PCPEB.merge.AOD.k1029_m2048
data18_hi.00367233.calibration_PCPEB.merge.AOD.k1029_m2048
data18_hi.00367273.calibration_PCPEB.merge.AOD.k1029_m2048
data18_hi.00367318.calibration_PCPEB.merge.AOD.k1029_m2048
data18_hi.00367321.calibration_PCPEB.merge.AOD.k1029_m2048
data18_hi.00367363.calibration_PCPEB.merge.AOD.k1029_m2048
data18_hi.00367364.calibration_PCPEB.merge.AOD.k1029_m2048
data18_hi.00367365.calibration_PCPEB.merge.AOD.k1029_m2048
data18_hi.00367384.calibration_PCPEB.merge.AOD.k1029_m2048
data18_hi.00365502.calibration_CCPEB.merge.AOD.k1023_m2037
data18_hi.00365512.calibration_CCPEB.merge.AOD.k1023_m2037
data18_hi.00365573.calibration_CCPEB.merge.AOD.k1029_m2048
data18_hi.00365602.calibration_CCPEB.merge.AOD.k1029_m2048
data18_hi.00365627.calibration_CCPEB.merge.AOD.k1029_m2048
done